{
	"Propietario": ["Matt_M", "+51", "995386439", "https://t.me/NeKosmic", "nekosmic"],
	"Idioma": "",
	"Prefijo": "/",
	"Apoyo": ["", "", ""],
	"Token": "TELEBOT TOKEN",
	"Dominio": "Dominio opcional"
}
